{
  "timeline": {   
    "1": {
      "link": "play_OneDrive/index.html",
      "pending": 200,
      "cloudName":"OneDrive",
      "piority":1,
      "start_time":"10:00",
      "end_time":"15:00"
    },
    "2": {
      "link": "play_Dropbox/index.html",
      "pending": 200,
      "cloudName":"Dropbox",
      "piority":2,
      "start_time":"15:00",
      "end_time":"20:00"
    }
    ,"3": {
      "link": "play_Google_Drive/index.html",
      "pending": 350,
      "cloudName":"Google Drive",
      "piority":3,
      "start_time":"15:00",
      "end_time":"22:00"
    }
  },
  "mode": "schedule"
}