{  
   "ResourceFolder":"sync",
   "SizeMode":"custom",
   "BannerWidth":1080,
   "BannerHeight":1920,
   "UseCache":0,
   "HasNew":0,
   "FolderId":"0B2gTqx8Dlg-veVhGODIzSTZqeDQ",
   "DownloadTime":400,
   "cloudResource":"OneDrive"
}